{
    "cs9": {
        "common": [
            "acl-2.3.1-3.el9",
            "alsa-lib-1.2.6.1-1.el9",
            "alternatives-1.20-2.el9",
            "annobin-10.54-2.el9",
            "audit-3.0.7-101.el9",
            "audit-libs-3.0.7-101.el9",
            "basesystem-11-13.el9",
            "bash-5.1.8-4.el9",
            "bc-1.07.1-14.el9",
            "binutils-2.35.2-17.el9",
            "binutils-gold-2.35.2-17.el9",
            "bison-3.7.4-5.el9",
            "boost-regex-1.75.0-6.el9",
            "bubblewrap-0.4.1-6.el9",
            "bzip2-1.0.8-8.el9",
            "bzip2-libs-1.0.8-8.el9",
            "ca-certificates-2020.2.50-94.el9",
            "centos-gpg-keys-9.0-12.el9",
            "centos-stream-release-9.0-12.el9",
            "centos-stream-repos-9.0-12.el9",
            "checkpolicy-3.3-1.el9",
            "chrony-4.1-3.el9",
            "clevis-18-102.el9",
            "cmake-3.20.2-7.el9",
            "cmake-data-3.20.2-7.el9",
            "cmake-filesystem-3.20.2-7.el9",
            "cmake-rpm-macros-3.20.2-7.el9",
            "conmon-2.1.0-1.el9",
            "container-selinux-2.178.0-1.el9",
            "containernetworking-plugins-1.0.1-3.el9",
            "containers-common-1-32.el9",
            "coreutils-8.32-31.el9",
            "coreutils-common-8.32-31.el9",
            "cpio-2.13-16.el9",
            "cpp-11.2.1-9.4.el9",
            "cracklib-2.9.6-27.el9",
            "cracklib-dicts-2.9.6-27.el9",
            "criu-3.15-13.el9",
            "criu-libs-3.15-13.el9",
            "crun-1.4.2-1.el9",
            "crypto-policies-20220223-1.git5203b41.el9",
            "cryptsetup-2.4.3-4.el9",
            "cryptsetup-libs-2.4.3-4.el9",
            "curl-7.76.1-14.el9",
            "cyrus-sasl-lib-2.1.27-20.el9",
            "dbus-1.12.20-5.el9",
            "dbus-broker-28-5.el9",
            "dbus-common-1.12.20-5.el9",
            "dbus-libs-1.12.20-5.el9",
            "device-mapper-1.02.183-4.el9",
            "device-mapper-libs-1.02.183-4.el9",
            "dhcp-client-4.4.2-15.b1.el9",
            "dhcp-common-4.4.2-15.b1.el9",
            "diffutils-3.7-12.el9",
            "dmidecode-3.3-6.el9",
            "dnf-4.10.0-4.el9",
            "dnf-data-4.10.0-4.el9",
            "dosfstools-4.2-3.el9",
            "dracut-055-30.git20220216.el9",
            "dracut-config-generic-055-30.git20220216.el9",
            "dracut-network-055-30.git20220216.el9",
            "dracut-squash-055-30.git20220216.el9",
            "dwarves-1.22-1.el9",
            "dwz-0.14-3.el9",
            "e2fsprogs-1.46.5-2.el9",
            "e2fsprogs-libs-1.46.5-2.el9",
            "ed-1.14.2-12.el9",
            "efi-filesystem-4-9.el9",
            "efi-srpm-macros-4-9.el9",
            "efibootmgr-16-12.el9",
            "efivar-libs-38-2.el9",
            "elfutils-0.186-1.el9",
            "elfutils-debuginfod-client-0.186-1.el9",
            "elfutils-default-yama-scope-0.186-1.el9",
            "elfutils-devel-0.186-1.el9",
            "elfutils-libelf-0.186-1.el9",
            "elfutils-libelf-devel-0.186-1.el9",
            "elfutils-libs-0.186-1.el9",
            "emacs-common-27.1-3.el9",
            "emacs-filesystem-27.1-3.el9",
            "emacs-nox-27.1-3.el9",
            "ethtool-5.10-4.el9",
            "expat-2.2.10-9.el9",
            "file-5.39-8.el9",
            "file-libs-5.39-8.el9",
            "filesystem-3.16-2.el9",
            "findutils-4.8.0-5.el9",
            "flex-2.6.4-9.el9",
            "fonts-srpm-macros-2.0.5-7.el9.1",
            "fuse-2.9.9-15.el9",
            "fuse-common-3.10.2-5.el9",
            "fuse-libs-2.9.9-15.el9",
            "fuse-overlayfs-1.8.2-1.el9",
            "fuse3-3.10.2-5.el9",
            "fuse3-libs-3.10.2-5.el9",
            "fwupd-1.5.9-3.el9",
            "gawk-5.1.0-6.el9",
            "gawk-all-langpacks-5.1.0-6.el9",
            "gcc-11.2.1-9.4.el9",
            "gcc-c++-11.2.1-9.4.el9",
            "gcc-plugin-annobin-11.2.1-9.4.el9",
            "gcc-plugin-devel-11.2.1-9.4.el9",
            "gdb-10.2-8.el9",
            "gdb-headless-10.2-8.el9",
            "gdbm-libs-1.19-4.el9",
            "gettext-0.21-7.el9",
            "gettext-libs-0.21-7.el9",
            "ghc-srpm-macros-1.5.0-6.el9",
            "git-2.31.1-2.el9.2",
            "git-core-2.31.1-2.el9.2",
            "git-core-doc-2.31.1-2.el9.2",
            "glib2-2.68.4-5.el9",
            "glibc-2.34-25.el9",
            "glibc-common-2.34-25.el9",
            "glibc-devel-2.34-25.el9",
            "glibc-gconv-extra-2.34-25.el9",
            "glibc-langpack-en-2.34-25.el9",
            "gmp-6.2.0-10.el9",
            "gmp-c++-6.2.0-10.el9",
            "gmp-devel-6.2.0-10.el9",
            "gnupg2-2.3.3-1.el9",
            "gnutls-3.7.3-9.el9",
            "go-srpm-macros-3.0.9-9.el9",
            "gobject-introspection-1.68.0-10.el9",
            "gpgme-1.15.1-6.el9",
            "gpm-libs-1.20.7-29.el9",
            "greenboot-0.14.0-3.el9",
            "grep-3.6-5.el9",
            "groff-base-1.22.4-10.el9",
            "grub2-common-2.06-25.el9",
            "grub2-tools-2.06-25.el9",
            "grub2-tools-minimal-2.06-25.el9",
            "gzip-1.10-8.el9",
            "hostapd-2.10-1.el9",
            "hostname-3.23-6.el9",
            "ima-evm-utils-1.4-4.el9",
            "info-6.7-15.el9",
            "inih-49-5.el9",
            "initscripts-service-10.11.2-1.el9",
            "ipcalc-1.0.0-5.el9",
            "iproute-5.13.0-5.el9",
            "iptables-libs-1.8.7-28.el9",
            "iptables-nft-1.8.7-28.el9",
            "iputils-20210202-7.el9",
            "jansson-2.14-1.el9",
            "jitterentropy-3.3.1-2.el9",
            "jose-11-3.el9",
            "jq-1.6-9.el9",
            "json-c-0.14-11.el9",
            "json-glib-1.6.6-1.el9",
            "kbd-2.4.0-8.el9",
            "kbd-misc-2.4.0-8.el9",
            "kernel-automotive-5.14.0-70.35.el9s",
            "kernel-automotive-core-5.14.0-70.35.el9s",
            "kernel-automotive-modules-5.14.0-70.35.el9s",
            "kernel-headers-5.14.0-70.el9",
            "kernel-srpm-macros-1.0-11.el9",
            "kexec-tools-2.0.23-9.el9",
            "keyutils-libs-1.6.1-4.el9",
            "kmod-28-7.el9",
            "kmod-libs-28-7.el9",
            "kpartx-0.8.7-7.el9",
            "krb5-libs-1.19.1-13.el9",
            "less-575-4.el9",
            "libacl-2.3.1-3.el9",
            "libaio-0.3.111-13.el9",
            "libarchive-3.5.3-1.el9",
            "libassuan-2.5.5-3.el9",
            "libattr-2.5.1-3.el9",
            "libbabeltrace-1.5.8-8.el9",
            "libblkid-2.37.2-1.el9",
            "libbpf-0.5.0-4.el9",
            "libbrotli-1.0.9-6.el9",
            "libcap-2.48-8.el9",
            "libcap-ng-0.8.2-7.el9",
            "libcbor-0.7.0-5.el9",
            "libcom_err-1.46.5-2.el9",
            "libcomps-0.1.18-1.el9",
            "libcurl-7.76.1-14.el9",
            "libdb-5.3.28-53.el9",
            "libdnf-0.65.0-3.el9",
            "libdwarves1-1.22-1.el9",
            "libeconf-0.4.1-2.el9",
            "libedit-3.1-37.20210216cvs.el9",
            "libestr-0.1.11-3.el9",
            "libfastjson-0.99.9-3.el9",
            "libfdisk-2.37.2-1.el9",
            "libffi-3.4.2-7.el9",
            "libfido2-1.6.0-7.el9",
            "libgcab1-1.4-6.el9",
            "libgcc-11.2.1-9.4.el9",
            "libgcrypt-1.10.0-2.el9",
            "libgomp-11.2.1-9.4.el9",
            "libgpg-error-1.42-5.el9",
            "libgudev-237-1.el9",
            "libgusb-0.3.6-3.el9",
            "libibverbs-37.2-1.el9",
            "libicu-67.1-9.el9",
            "libidn2-2.3.0-7.el9",
            "libjcat-0.1.6-3.el9",
            "libjose-11-3.el9",
            "libkcapi-1.3.1-3.el9",
            "libkcapi-hmaccalc-1.3.1-3.el9",
            "libksba-1.5.1-4.el9",
            "liblockfile-1.14-9.el9",
            "libluksmeta-9-12.el9",
            "libmnl-1.0.4-15.el9",
            "libmodulemd-2.13.0-2.el9",
            "libmount-2.37.2-1.el9",
            "libmpc-1.2.1-4.el9",
            "libmpc-devel-1.2.1-4.el9",
            "libndp-1.8-4.el9",
            "libnet-1.2-6.el9",
            "libnetfilter_conntrack-1.0.8-4.el9",
            "libnfnetlink-1.0.1-21.el9",
            "libnftnl-1.1.9-4.el9",
            "libnghttp2-1.43.0-5.el9",
            "libnl3-3.5.0-10.el9",
            "libpcap-1.10.0-4.el9",
            "libpkgconf-1.7.3-9.el9",
            "libpsl-0.21.1-5.el9",
            "libpwquality-1.4.4-8.el9",
            "libqb-2.0.3-7.el9",
            "librepo-1.14.2-1.el9",
            "libreport-filesystem-2.15.2-6.el9",
            "libseccomp-2.5.2-2.el9",
            "libselinux-3.3-2.el9",
            "libselinux-utils-3.3-2.el9",
            "libsemanage-3.3-2.el9",
            "libsepol-3.3-2.el9",
            "libsigsegv-2.13-4.el9",
            "libslirp-4.4.0-4.el9",
            "libsmartcols-2.37.2-1.el9",
            "libsolv-0.7.20-2.el9",
            "libss-1.46.5-2.el9",
            "libssh-0.9.6-3.el9",
            "libssh-config-0.9.6-3.el9",
            "libstdc++-11.2.1-9.4.el9",
            "libstdc++-devel-11.2.1-9.4.el9",
            "libtasn1-4.16.0-7.el9",
            "libunistring-0.9.10-15.el9",
            "libusbx-1.0.24-4.el9",
            "libuser-0.63-7.el9",
            "libutempter-1.2.1-6.el9",
            "libuuid-2.37.2-1.el9",
            "libuv-1.42.0-1.el9",
            "libverto-0.3.2-3.el9",
            "libxcrypt-4.4.18-3.el9",
            "libxcrypt-compat-4.4.18-3.el9",
            "libxcrypt-devel-4.4.18-3.el9",
            "libxml2-2.9.13-1.el9",
            "libxmlb-0.3.3-1.el9",
            "libyaml-0.2.5-7.el9",
            "libzstd-1.5.1-2.el9",
            "libzstd-devel-1.5.1-2.el9",
            "linux-firmware-20211216-124.el9",
            "linux-firmware-whence-20211216-124.el9",
            "llvm-libs-13.0.1-1.el9",
            "lua-libs-5.4.2-4.el9",
            "lua-srpm-macros-1-6.el9",
            "luksmeta-9-12.el9",
            "lz4-libs-1.9.3-5.el9",
            "lzo-2.10-7.el9",
            "m4-1.4.19-1.el9",
            "make-4.3-7.el9",
            "memstrack-0.2.3-2.el9",
            "mokutil-0.4.0-8.el9",
            "mpfr-4.1.0-7.el9",
            "mpfr-devel-4.1.0-7.el9",
            "mtools-4.0.26-3.el9",
            "nano-5.6.1-5.el9",
            "ncurses-6.2-8.20210508.el9",
            "ncurses-base-6.2-8.20210508.el9",
            "ncurses-c++-libs-6.2-8.20210508.el9",
            "ncurses-devel-6.2-8.20210508.el9",
            "ncurses-libs-6.2-8.20210508.el9",
            "net-tools-2.0-0.62.20160912git.el9",
            "nettle-3.7.3-2.el9",
            "NetworkManager-1.36.0-2.el9",
            "NetworkManager-libnm-1.36.0-2.el9",
            "nftables-0.9.8-12.el9",
            "npth-1.6-8.el9",
            "nss-altfiles-2.18.1-20.el9",
            "numactl-libs-2.0.14-7.el9",
            "ocaml-srpm-macros-6-6.el9",
            "oniguruma-6.9.6-1.el9.5",
            "openblas-srpm-macros-2-11.el9",
            "openldap-2.4.59-3.el9",
            "openssh-8.7p1-8.el9",
            "openssh-clients-8.7p1-8.el9",
            "openssh-server-8.7p1-8.el9",
            "openssl-3.0.1-14.el9",
            "openssl-libs-3.0.1-14.el9",
            "openssl-pkcs11-0.4.11-7.el9",
            "os-prober-1.77-9.el9",
            "ostree-2021.6-1.el9",
            "ostree-libs-2021.6-1.el9",
            "p11-kit-0.24.1-2.el9",
            "p11-kit-trust-0.24.1-2.el9",
            "pam-1.5.1-9.el9",
            "passwd-0.80-12.el9",
            "patch-2.7.6-16.el9",
            "pcre-8.44-3.el9.3",
            "pcre2-10.37-3.el9.1",
            "pcre2-syntax-10.37-3.el9.1",
            "perl-AutoSplit-5.74-479.el9",
            "perl-B-1.80-479.el9",
            "perl-base-2.27-479.el9",
            "perl-Benchmark-1.23-479.el9",
            "perl-Carp-1.50-460.el9",
            "perl-Class-Struct-0.66-479.el9",
            "perl-constant-1.33-461.el9",
            "perl-Data-Dumper-2.174-462.el9",
            "perl-devel-5.32.1-479.el9",
            "perl-Devel-PPPort-3.62-4.el9",
            "perl-DynaLoader-1.47-479.el9",
            "perl-Encode-3.08-462.el9",
            "perl-Errno-1.30-479.el9",
            "perl-Error-0.17029-7.el9",
            "perl-Exporter-5.74-461.el9",
            "perl-ExtUtils-Command-7.60-3.el9",
            "perl-ExtUtils-Constant-0.25-479.el9",
            "perl-ExtUtils-Install-2.20-4.el9",
            "perl-ExtUtils-MakeMaker-7.60-3.el9",
            "perl-ExtUtils-Manifest-1.73-4.el9",
            "perl-ExtUtils-ParseXS-3.40-460.el9",
            "perl-Fcntl-1.13-479.el9",
            "perl-File-Basename-2.85-479.el9",
            "perl-File-Compare-1.100.600-479.el9",
            "perl-File-Copy-2.34-479.el9",
            "perl-File-Find-1.37-479.el9",
            "perl-File-Path-2.18-4.el9",
            "perl-File-stat-1.09-479.el9",
            "perl-File-Temp-0.231.100-4.el9",
            "perl-Getopt-Long-2.52-4.el9",
            "perl-Getopt-Std-1.12-479.el9",
            "perl-Git-2.31.1-2.el9.2",
            "perl-HTTP-Tiny-0.076-460.el9",
            "perl-if-0.60.800-479.el9",
            "perl-interpreter-5.32.1-479.el9",
            "perl-IO-1.43-479.el9",
            "perl-IPC-Open3-1.21-479.el9",
            "perl-lib-0.65-479.el9",
            "perl-libs-5.32.1-479.el9",
            "perl-locale-1.09-479.el9",
            "perl-MIME-Base64-3.16-4.el9",
            "perl-mro-1.23-479.el9",
            "perl-overload-1.31-479.el9",
            "perl-overloading-0.02-479.el9",
            "perl-parent-0.238-460.el9",
            "perl-PathTools-3.78-461.el9",
            "perl-Pod-Escapes-1.07-460.el9",
            "perl-Pod-Perldoc-3.28.01-461.el9",
            "perl-Pod-Simple-3.42-4.el9",
            "perl-Pod-Usage-2.01-4.el9",
            "perl-podlators-4.14-460.el9",
            "perl-POSIX-1.94-479.el9",
            "perl-Scalar-List-Utils-1.56-461.el9",
            "perl-SelectSaver-1.02-479.el9",
            "perl-Socket-2.031-4.el9",
            "perl-srpm-macros-1-41.el9",
            "perl-Storable-3.21-460.el9",
            "perl-subs-1.03-479.el9",
            "perl-Symbol-1.08-479.el9",
            "perl-Term-ANSIColor-5.01-461.el9",
            "perl-Term-Cap-1.17-460.el9",
            "perl-TermReadKey-2.38-11.el9",
            "perl-Test-Harness-3.42-461.el9",
            "perl-Text-ParseWords-3.30-460.el9",
            "perl-Text-Tabs+Wrap-2013.0523-460.el9",
            "perl-Time-Local-1.300-7.el9",
            "perl-vars-1.05-479.el9",
            "perl-version-0.99.28-4.el9",
            "pigz-2.5-4.el9",
            "pkgconf-1.7.3-9.el9",
            "pkgconf-m4-1.7.3-9.el9",
            "pkgconf-pkg-config-1.7.3-9.el9",
            "podman-4.0.0-6.el9",
            "podman-catatonit-4.0.0-6.el9",
            "policycoreutils-3.3-5.el9",
            "policycoreutils-python-utils-3.3-5.el9",
            "polkit-0.117-9.el9",
            "polkit-libs-0.117-9.el9",
            "polkit-pkla-compat-0.1-21.el9",
            "popt-1.18-8.el9",
            "procps-ng-3.3.17-4.el9",
            "protobuf-3.14.0-9.el9",
            "protobuf-c-1.3.3-12.el9",
            "psmisc-23.4-3.el9",
            "publicsuffix-list-dafsa-20210518-3.el9",
            "python-rpm-macros-3.9-52.el9",
            "python-srpm-macros-3.9-52.el9",
            "python-unversioned-command-3.9.10-2.el9",
            "python3-3.9.10-2.el9",
            "python3-audit-3.0.7-101.el9",
            "python3-dbus-1.2.18-2.el9",
            "python3-devel-3.9.10-2.el9",
            "python3-dnf-4.10.0-4.el9",
            "python3-ethtool-0.15-2.el9",
            "python3-gobject-base-3.40.1-5.el9",
            "python3-gpg-1.15.1-6.el9",
            "python3-hawkey-0.65.0-3.el9",
            "python3-iniparse-0.4-45.el9",
            "python3-libcomps-0.1.18-1.el9",
            "python3-libdnf-0.65.0-3.el9",
            "python3-libs-3.9.10-2.el9",
            "python3-libselinux-3.3-2.el9",
            "python3-libsemanage-3.3-2.el9",
            "python3-linux-procfs-0.7.0-1.el9",
            "python3-packaging-20.9-5.el9",
            "python3-perf-5.14.0-70.el9",
            "python3-pip-wheel-21.2.3-6.el9",
            "python3-policycoreutils-3.3-5.el9",
            "python3-pyparsing-2.4.7-9.el9",
            "python3-pyudev-0.22.0-6.el9",
            "python3-rpm-4.16.1.3-11.el9",
            "python3-rpm-generators-12-8.el9",
            "python3-rpm-macros-3.9-52.el9",
            "python3-setools-4.4.0-4.el9",
            "python3-setuptools-53.0.0-10.el9",
            "python3-setuptools-wheel-53.0.0-10.el9",
            "python3-six-1.15.0-9.el9",
            "qemu-img-6.2.0-10.el9",
            "qt5-srpm-macros-5.15.2-9.el9",
            "readline-8.1-4.el9",
            "realtime-setup-2.2-4.el9s",
            "redhat-rpm-config-194-1.el9",
            "rng-tools-6.14-2.git.b2b7934e.el9",
            "rootfiles-8.1-31.el9",
            "rpm-4.16.1.3-11.el9",
            "rpm-build-4.16.1.3-11.el9",
            "rpm-build-libs-4.16.1.3-11.el9",
            "rpm-libs-4.16.1.3-11.el9",
            "rpm-ostree-2021.14-3.el9",
            "rpm-ostree-libs-2021.14-3.el9",
            "rpm-plugin-selinux-4.16.1.3-11.el9",
            "rpm-sign-libs-4.16.1.3-11.el9",
            "rsyslog-8.2102.0-101.el9",
            "runc-1.1.0-2.el9",
            "rust-srpm-macros-17-4.el9",
            "sed-4.8-9.el9",
            "selinux-policy-34.1.27-1.el9",
            "selinux-policy-targeted-34.1.27-1.el9",
            "setup-2.13.7-6.el9",
            "shadow-utils-4.9-3.el9",
            "shadow-utils-subid-4.9-3.el9",
            "shared-mime-info-2.1-4.el9",
            "skopeo-1.5.1-0.1.el9",
            "slirp4netns-1.1.12-4.el9",
            "snappy-1.1.8-8.el9",
            "source-highlight-3.1.9-11.el9",
            "sqlite-libs-3.34.1-5.el9",
            "squashfs-tools-4.4-7.git1.el9",
            "strace-5.13-7.el9",
            "sudo-1.9.5p2-7.el9",
            "systemd-250-4.el9",
            "systemd-libs-250-4.el9",
            "systemd-pam-250-4.el9",
            "systemd-rpm-macros-250-4.el9",
            "systemd-udev-250-4.el9",
            "systemtap-sdt-devel-4.6-11.el9",
            "tar-1.34-3.el9",
            "tpm2-tools-5.0-10.el9",
            "tpm2-tss-3.0.3-7.el9",
            "tuna-0.17-2.el9",
            "tuned-2.18.0-1.el9",
            "tuned-profiles-realtime-2.16.0-3.el9s",
            "tzdata-2021e-1.el9",
            "unzip-6.0-56.el9",
            "usbguard-1.0.0-10.el9",
            "userspace-rcu-0.12.1-6.el9",
            "util-linux-2.37.2-1.el9",
            "util-linux-core-2.37.2-1.el9",
            "vim-common-8.2.2637-15.el9",
            "vim-enhanced-8.2.2637-15.el9",
            "vim-filesystem-8.2.2637-15.el9",
            "virt-what-1.21-2.el9.2",
            "wget-1.21.1-7.el9",
            "which-2.21-27.el9",
            "wpa_supplicant-2.10-2.el9",
            "xfsprogs-5.14.2-1.el9",
            "xz-5.2.5-7.el9",
            "xz-devel-5.2.5-7.el9",
            "xz-libs-5.2.5-7.el9",
            "yajl-2.1.0-20.el9",
            "yum-4.10.0-4.el9",
            "zip-3.0-33.el9",
            "zlib-1.2.11-31.el9",
            "zlib-devel-1.2.11-31.el9",
            "zstd-1.5.1-2.el9"
        ],
        "arch": {
            "aarch64": [
                "grub2-efi-aa64-2.06-25.el9",
                "grub2-efi-aa64-cdboot-2.06-25.el9",
                "libasan-11.2.1-9.4.el9",
                "libatomic-11.2.1-9.4.el9",
                "libubsan-11.2.1-9.4.el9",
                "shim-aa64-15-15.el8_2"
            ],
            "x86_64": [
                "glibc-headers-2.34-25.el9",
                "grub2-efi-x64-2.06-25.el9",
                "grub2-efi-x64-cdboot-2.06-25.el9",
                "grub2-pc-2.06-25.el9",
                "grub2-pc-modules-2.06-25.el9",
                "grub2-tools-efi-2.06-25.el9",
                "libipt-2.0.4-3.el9",
                "libsmbios-2.4.3-4.el9",
                "microcode_ctl-20220207-1.el9",
                "shim-x64-15-15.el8_2"
            ]
        }
    }
}